^D:\PROGRAME\VISUAL STUDIO PROFESSIONAL 2013\PROJECTS\LAB_EGC_1_STUDENT\DEBUG\APP.OBJ|D:\PROGRAME\VISUAL STUDIO PROFESSIONAL 2013\PROJECTS\LAB_EGC_1_STUDENT\DEBUG\BULLET.OBJ|D:\PROGRAME\VISUAL STUDIO PROFESSIONAL 2013\PROJECTS\LAB_EGC_1_STUDENT\DEBUG\CAMERA.OBJ|D:\PROGRAME\VISUAL STUDIO PROFESSIONAL 2013\PROJECTS\LAB_EGC_1_STUDENT\DEBUG\DISPLAY.OBJ|D:\PROGRAME\VISUAL STUDIO PROFESSIONAL 2013\PROJECTS\LAB_EGC_1_STUDENT\DEBUG\INPUTREADER.OBJ|D:\PROGRAME\VISUAL STUDIO PROFESSIONAL 2013\PROJECTS\LAB_EGC_1_STUDENT\DEBUG\LIGHTSOURCE.OBJ|D:\PROGRAME\VISUAL STUDIO PROFESSIONAL 2013\PROJECTS\LAB_EGC_1_STUDENT\DEBUG\MAIN.OBJ|D:\PROGRAME\VISUAL STUDIO PROFESSIONAL 2013\PROJECTS\LAB_EGC_1_STUDENT\DEBUG\MESH.OBJ|D:\PROGRAME\VISUAL STUDIO PROFESSIONAL 2013\PROJECTS\LAB_EGC_1_STUDENT\DEBUG\OBJECT.OBJ|D:\PROGRAME\VISUAL STUDIO PROFESSIONAL 2013\PROJECTS\LAB_EGC_1_STUDENT\DEBUG\PLANE.OBJ|D:\PROGRAME\VISUAL STUDIO PROFESSIONAL 2013\PROJECTS\LAB_EGC_1_STUDENT\DEBUG\RNG.OBJ|D:\PROGRAME\VISUAL STUDIO PROFESSIONAL 2013\PROJECTS\LAB_EGC_1_STUDENT\DEBUG\SCENE.OBJ|D:\PROGRAME\VISUAL STUDIO PROFESSIONAL 2013\PROJECTS\LAB_EGC_1_STUDENT\DEBUG\SHADER.OBJ|D:\PROGRAME\VISUAL STUDIO PROFESSIONAL 2013\PROJECTS\LAB_EGC_1_STUDENT\DEBUG\STB_IMAGE.OBJ|D:\PROGRAME\VISUAL STUDIO PROFESSIONAL 2013\PROJECTS\LAB_EGC_1_STUDENT\DEBUG\TEXTURE.OBJ|D:\PROGRAME\VISUAL STUDIO PROFESSIONAL 2013\PROJECTS\LAB_EGC_1_STUDENT\DEBUG\UTILS.OBJ
D:\PROGRAME\VISUAL STUDIO PROFESSIONAL 2013\PROJECTS\LAB_EGC_1_STUDENT\DEBUG\LAB_EGC_1.ILK
D:\PROGRAME\VISUAL STUDIO PROFESSIONAL 2013\PROJECTS\LAB_EGC_1_STUDENT\DEBUG\LAB_EGC_1.EXE
D:\PROGRAME\VISUAL STUDIO PROFESSIONAL 2013\PROJECTS\LAB_EGC_1_STUDENT\DEBUG\LAB_EGC_1.PDB
